{
    "name": "devcontainer",
    "image": "python:3.7.16",
    "postStartCommand": "apt-get update && apt-get install -y openjdk-11-jre-headless && pip install -r requirements.txt",
    "customizations": {
        "vscode": {
            "extensions": [
                "ms-python.python",
                "ms-python.vscode-pylance",
                "ms-toolsai.jupyter"
            ]
        }
    }
}
